%YAML 1.1
%TAG !u! tag:unity3d.com,2011:
--- !u!114 &11400000
MonoBehaviour:
  m_ObjectHideFlags: 0
  m_PrefabParentObject: {fileID: 0}
  m_PrefabInternal: {fileID: 0}
  m_GameObject: {fileID: 0}
  m_Enabled: 1
  m_EditorHideFlags: 0
  m_Script: {fileID: 11500000, guid: 75a04c25614764ebaa8633399beb7363, type: 3}
  m_Name: Fireball
  m_EditorClassIdentifier: 
  Name: Fire Shot
  Color: {r: 1, g: 0, b: 0.015686275, a: 1}
  Icon: {fileID: 21300000, guid: 5a5692ffd6ae546bb951159ed7fe6cca, type: 3}
  AbilityPrefab: {fileID: 114412074791290490, guid: 90a4d2e3bdb784bb89996834bece3773,
    type: 2}
  ShouldParent: 0
  Speed: 10
  FromPlayerDirection: 1
  Duration: 3
