%YAML 1.1
%TAG !u! tag:unity3d.com,2011:
--- !u!114 &11400000
MonoBehaviour:
  m_ObjectHideFlags: 0
  m_PrefabParentObject: {fileID: 0}
  m_PrefabInternal: {fileID: 0}
  m_GameObject: {fileID: 0}
  m_Enabled: 1
  m_EditorHideFlags: 0
  m_Script: {fileID: 11500000, guid: 1a2c037582d7f4a8d9ee768e7ad5c251, type: 3}
  m_Name: HardenEffectPickup
  m_EditorClassIdentifier: 
  Name: Invincibility
  Color: {r: 0.86666673, g: 0.8313726, b: 0.38823533, a: 1}
  Icon: {fileID: 21300000, guid: 9428061750f074750ad16e5a81044fd8, type: 3}
  EffectToApply: {fileID: 11400000, guid: 7d112cd238e4c6549a58e4e58f09dd2c, type: 2}
