%YAML 1.1
%TAG !u! tag:unity3d.com,2011:
--- !u!114 &11400000
MonoBehaviour:
  m_ObjectHideFlags: 0
  m_PrefabParentObject: {fileID: 0}
  m_PrefabInternal: {fileID: 0}
  m_GameObject: {fileID: 0}
  m_Enabled: 1
  m_EditorHideFlags: 0
  m_Script: {fileID: 11500000, guid: 9d267c727c6da4d3bbaf1b762d6eb75d, type: 3}
  m_Name: HealthEffect
  m_EditorClassIdentifier: 
  Duration: 0
  HealthModifier: 2
  JumpModifier: 0
  SpeedModifier: 0
  ActivateInvicibility: 0
  EffectSystem: {fileID: 0}
