%YAML 1.1
%TAG !u! tag:unity3d.com,2011:
--- !u!114 &11400000
MonoBehaviour:
  m_ObjectHideFlags: 0
  m_PrefabParentObject: {fileID: 0}
  m_PrefabInternal: {fileID: 0}
  m_GameObject: {fileID: 0}
  m_Enabled: 1
  m_EditorHideFlags: 0
  m_Script: {fileID: 11500000, guid: bf6fbd801fa75480b8700aeb80253dc6, type: 3}
  m_Name: Shoot
  m_EditorClassIdentifier: 
  Clips:
  - {fileID: 8300000, guid: 55a7c408bd6d0480cb181e89d01056fc, type: 3}
